Ecommerce
…
Parte 2: Anlisis exploratorio (EDA). (30/100)

Estadsticas generales sobre la cantidad de productos que vendemos:

data %>%
  group_by(StockCode) %>%
  summarise(count = n(),
            sum_quantity = sum(Quantity),
            mean_quantity = round(mean(Quantity), 2),
            median_quantity = median(Quantity),
            mode_quantity = unique(Quantity)[which.max(tabulate(match(Quantity, unique(Quantity))))],
            sd_quantity = round(sd(Quantity), 2))

## # A tibble: 3,665 x 7
##    StockCode count sum_quantity mean_quantity median_quantity mode_quantity
##  * <chr>     <int>        <int>         <dbl>           <dbl>         <int>
##  1 10002        49          823         16.8               12            12
##  2 10080        21          291         13.9               12            12
##  3 10120        29          192          6.62               5             1
##  4 10123C        3            5          1.67               1             1
##  5 10124A        5           16          3.2                4             4
##  6 10124G        4           17          4.25               4             4
##  7 10125        63         1225         19.4               20            20
##  8 10133       122         2373         19.4               20            20
##  9 10135       119         1936         16.3               10            10
## 10 11001        64         1252         19.6               16            16
## # ... with 3,655 more rows, and 1 more variable: sd_quantity <dbl>
…
22492

26076

Productos menos vendidos:

#Tenemos muchos productos que se han vendido menos de 10 veces
sum(sales$Total < 10) #En concreto 338

## [1] 338

#Quizs lo mejor sera eliminar estos productos del Stock
sales[sales$Total < 10,]

## # A tibble: 338 x 2
##    StockCode Total
##    <chr>     <int>
##  1 17174         9
##  2 20661         9
##  3 20851         9
##  4 21847         9
##  5 35598A        9
##  6 44091A        9
##  7 62097B        9
##  8 84675         9
##  9 85189         9
## 10 90016B        9
## # ... with 328 more rows
…
